<?xml version="1.0" encoding="utf-8"?>
<!-- Generator: Adobe Illustrator 21.1.0, SVG Export Plug-In . SVG Version: 6.00 Build 0)  -->
<svg version="1.1" id="Layer_1" xmlns="http://www.w3.org/2000/svg" xmlns:xlink="http://www.w3.org/1999/xlink" x="0px" y="0px"
	 viewBox="0 0 880 1156" style="enable-background:new 0 0 880 1156;" xml:space="preserve">
<style type="text/css">
	.st0{fill:#494949;}
	.st1{fill:#FFFFFF;}
</style>
<g>
	<path class="st0" d="M16.5,99.3c0.5,0.8,1.2,1.4,1.9,2c0.7,0.6,1.5,1.1,2.3,1.6c1.6,1,3.2,1.9,4.8,2.7c3.3,1.7,6.7,3.2,10.1,4.7
		c6.8,2.9,13.8,5.6,20.7,8c14,4.9,28.2,9.2,42.5,13c14.3,3.8,28.8,7.1,43.3,9.7c14.5,2.6,29.2,4.6,43.8,5.6
		c7.3,0.5,14.6,0.7,21.9,0.6c7.3-0.1,14.5-0.5,21.7-1.4c7.1-0.9,14.1-2.3,20.8-4.5c6.7-2.1,13-5,18.5-8.8c2.7-1.9,5.3-4,7.5-6.4
		c1.1-1.2,2.2-2.4,3.2-3.7c0.5-0.6,1-1.3,1.4-2l1.6-2.4c4.4-6.3,9.3-12.3,14.6-18c10.5-11.4,22.3-21.3,35-30
		c25.4-17.3,53.9-29.5,83.2-37.7c29.4-8.2,59.7-12.6,90.2-13.4c30.4-0.8,61,1.7,91,8.2c29.9,6.5,59.3,16.8,86.3,32.2
		c13.5,7.7,26.4,16.7,38.1,27.2c11.8,10.5,22.4,22.4,31.3,35.7c4.5,6.6,8.4,13.6,11.9,20.7c1.7,3.6,3.4,7.3,4.9,11
		c1.4,3.6,2.8,7.1,4.2,10.6c5.4,14.2,10.2,28.4,14.8,42.7c9.2,28.6,17.3,57.5,24.8,86.4c3.8,14.5,7.3,29,10.8,43.6
		c3.4,14.6,6.7,29.2,9.8,43.8c6.2,29.3,11.8,58.7,16.8,88.2c4.9,29.5,9.2,59.2,12.8,88.9c7.2,59.5,11.5,119.5,11.2,179.8
		c-0.1,30.1-1.5,60.3-4.6,90.5c-3.1,30.1-8,60.3-15.7,90c-3.8,14.9-8.4,29.6-14,44.1c-5.6,14.5-12,28.7-19.8,42.4
		c-7.7,13.7-16.7,26.8-27.2,38.9c-5.3,6-10.9,11.8-16.9,17.1c-3,2.7-6.1,5.3-9.3,7.8c-3.2,2.5-6.5,4.9-9.6,7.1
		c-25.4,17.7-52.6,32.2-80.9,43.9c-28.3,11.7-57.6,20.7-87.6,26.9c-29.9,6.2-60.4,9.7-91,10c-30.6,0.4-61.3-2.5-91.4-9.1
		c-30-6.6-59.4-17.1-86.5-32c-27.1-14.9-51.9-34.1-72.7-57c-10.4-11.4-19.9-23.7-28.2-36.6c-8.4-12.9-15.7-26.5-22-40.5
		c-12.6-28-21.2-57.4-26.5-87.3c-1.3-7.5-2.5-14.9-3.4-22.5c-0.5-3.7-0.9-7.5-1.3-11.3c-0.3-3.8-0.8-7.5-1-11.3l-0.4-5.6l-0.3-5.6
		c-0.2-3.7-0.4-7.5-0.6-11.2c-0.3-7.5-0.6-15-0.6-22.5c-0.2-7.5-0.1-15-0.1-22.5c0.1-7.5,0.3-15,0.6-22.5c0.6-15,1.5-29.9,2.9-44.8
		c1.3-14.9,3.1-29.7,5.1-44.5c2-14.8,4.5-29.5,7.3-44.2c2.8-14.7,6-29.2,9.5-43.7c3.6-14.5,7.4-28.9,12.1-43
		c-7.1,28.9-12.1,58.2-16,87.6c-1.9,14.7-3.5,29.4-4.8,44.2c-1.3,14.8-2.2,29.5-2.9,44.3c-0.7,14.8-0.9,29.6-0.8,44.3
		c0,7.4,0.2,14.8,0.4,22.1c0.3,7.4,0.5,14.7,1,22.1c0.2,3.7,0.4,7.4,0.7,11l0.8,11c0.3,3.7,0.7,7.3,1,11l0.5,5.5l0.6,5.5
		c0.4,3.6,0.9,7.3,1.3,10.9c0.5,3.6,1,7.2,1.6,10.8c1.1,7.2,2.4,14.4,3.9,21.5c5.9,28.5,14.7,56.4,27.1,82.4
		c12.4,26,28.6,50.1,48.3,70.8c19.6,20.8,42.8,38,68,51.3c25.3,13.3,52.6,22.6,80.7,28.3c28.1,5.7,57,7.9,85.9,7.3
		c28.8-0.7,57.7-4.4,85.9-10.6c28.2-6.2,55.9-15,82.4-26.3c26.5-11.3,52-25.1,75.2-41.7c3-2.1,5.6-4.1,8.3-6.2
		c2.7-2.1,5.2-4.3,7.8-6.6c5-4.6,9.8-9.5,14.3-14.7c9-10.4,16.8-22,23.6-34.2c6.9-12.2,12.6-25.2,17.7-38.5
		c2.5-6.7,4.8-13.4,6.9-20.3c2.1-6.8,4.1-13.8,5.8-20.7c7.1-27.9,11.7-56.7,14.7-85.6c1.5-14.5,2.5-29.1,3.2-43.7
		c0.7-14.6,1.1-29.3,1.2-43.9c0.2-29.3-0.7-58.7-2.6-88.1c-1.9-29.4-4.4-58.7-7.8-88.1c-3.3-29.3-7.4-58.6-12.1-87.7
		c-4.6-29.2-9.8-58.3-15.6-87.2c-11.7-57.9-25.2-115.5-42.3-171.9c-4.3-14.1-8.7-28.1-13.6-41.8c-1.2-3.4-2.5-6.9-3.8-10.2
		c-1.2-3.2-2.6-6.4-4-9.5c-2.9-6.2-6.3-12.3-10-18c-7.5-11.6-16.6-22.2-26.9-31.6c-10.3-9.5-21.7-17.8-33.9-25.1
		C647.2,64.1,620,53.9,592,47.3c-28.1-6.6-57.1-9.7-86.1-9.5c-14.5,0.1-29,1.1-43.4,2.9c-14.4,1.8-28.7,4.4-42.7,8
		c-28.1,7.2-55.2,18.1-79.4,33.7c-12.1,7.8-23.4,16.8-33.3,27.1c-5,5.1-9.7,10.6-13.9,16.3l-1.6,2.2c-0.6,0.8-1.3,1.7-1.9,2.5
		c-1.3,1.6-2.7,3.2-4.2,4.6c-3,2.9-6.3,5.5-9.7,7.7c-6.9,4.4-14.4,7.4-22,9.5c-7.6,2.1-15.3,3.3-22.9,4c-15.3,1.4-30.5,0.7-45.5-1
		c-30-3.4-59.1-10.5-87.6-19.5c-14.2-4.5-28.3-9.6-42.1-15.3c-6.9-2.8-13.7-5.9-20.4-9.1c-3.3-1.7-6.6-3.4-9.9-5.3
		c-1.6-1-3.2-1.9-4.7-3c-0.8-0.5-1.5-1.1-2.2-1.7C17.6,100.8,16.9,100.1,16.5,99.3z"/>
</g>
<g>
	<path class="st1" d="M9.5,88.3c0.5,0.8,1.2,1.4,1.9,2c0.7,0.6,1.5,1.1,2.3,1.6c1.6,1,3.2,1.9,4.8,2.7c3.3,1.7,6.7,3.2,10.1,4.7
		c6.8,2.9,13.8,5.6,20.7,8c14,4.9,28.2,9.2,42.5,13c14.3,3.8,28.8,7.1,43.3,9.7c14.5,2.6,29.2,4.6,43.8,5.6
		c7.3,0.5,14.6,0.7,21.9,0.6c7.3-0.1,14.5-0.5,21.7-1.4c7.1-0.9,14.1-2.3,20.8-4.5c6.7-2.1,13-5,18.5-8.8c2.7-1.9,5.3-4,7.5-6.4
		c1.1-1.2,2.2-2.4,3.2-3.7c0.5-0.6,1-1.3,1.4-2l1.6-2.4c4.4-6.3,9.3-12.3,14.6-18c10.5-11.4,22.3-21.3,35-30
		c25.4-17.3,53.9-29.5,83.2-37.7c29.4-8.2,59.7-12.6,90.2-13.4c30.4-0.8,61,1.7,91,8.2c29.9,6.5,59.3,16.8,86.3,32.2
		c13.5,7.7,26.4,16.7,38.1,27.2c11.8,10.5,22.4,22.4,31.3,35.7c4.5,6.6,8.4,13.6,11.9,20.7c1.7,3.6,3.4,7.3,4.9,11
		c1.4,3.6,2.8,7.1,4.2,10.6c5.4,14.2,10.2,28.4,14.8,42.7c9.2,28.6,17.3,57.5,24.8,86.4c3.8,14.5,7.3,29,10.8,43.6
		c3.4,14.6,6.7,29.2,9.8,43.8c6.2,29.3,11.8,58.7,16.8,88.2c4.9,29.5,9.2,59.2,12.8,88.9c7.2,59.5,11.5,119.5,11.2,179.8
		c-0.1,30.1-1.5,60.3-4.6,90.5c-3.1,30.1-8,60.3-15.7,90c-3.8,14.9-8.4,29.6-14,44.1c-5.6,14.5-12,28.7-19.8,42.4
		c-7.7,13.7-16.7,26.8-27.2,38.9c-5.3,6-10.9,11.8-16.9,17.1c-3,2.7-6.1,5.3-9.3,7.8c-3.2,2.5-6.5,4.9-9.6,7.1
		c-25.4,17.7-52.6,32.2-80.9,43.9c-28.3,11.7-57.6,20.7-87.6,26.9c-29.9,6.2-60.4,9.7-91,10c-30.6,0.4-61.3-2.5-91.4-9.1
		c-30-6.6-59.4-17.1-86.5-32c-27.1-14.9-51.9-34.1-72.7-57c-10.4-11.4-19.9-23.7-28.2-36.6c-8.4-12.9-15.7-26.5-22-40.5
		c-12.6-28-21.2-57.4-26.5-87.3c-1.3-7.5-2.5-14.9-3.4-22.5c-0.5-3.7-0.9-7.5-1.3-11.3c-0.3-3.8-0.8-7.5-1-11.3l-0.4-5.6l-0.3-5.6
		c-0.2-3.7-0.4-7.5-0.6-11.2c-0.3-7.5-0.6-15-0.6-22.5c-0.2-7.5-0.1-15-0.1-22.5c0.1-7.5,0.3-15,0.6-22.5c0.6-15,1.5-29.9,2.9-44.8
		c1.3-14.9,3.1-29.7,5.1-44.5c2-14.8,4.5-29.5,7.3-44.2c2.8-14.7,6-29.2,9.5-43.7c3.6-14.5,7.4-28.9,12.1-43
		c-7.1,28.9-12.1,58.2-16,87.6c-1.9,14.7-3.5,29.4-4.8,44.2c-1.3,14.8-2.2,29.5-2.9,44.3c-0.7,14.8-0.9,29.6-0.8,44.3
		c0,7.4,0.2,14.8,0.4,22.1c0.3,7.4,0.5,14.7,1,22.1c0.2,3.7,0.4,7.4,0.7,11l0.8,11c0.3,3.7,0.7,7.3,1,11l0.5,5.5l0.6,5.5
		c0.4,3.6,0.9,7.3,1.3,10.9c0.5,3.6,1,7.2,1.6,10.8c1.1,7.2,2.4,14.4,3.9,21.5c5.9,28.5,14.7,56.4,27.1,82.4
		c12.4,26,28.6,50.1,48.3,70.8c19.6,20.8,42.8,38,68,51.3c25.3,13.3,52.6,22.6,80.7,28.3c28.1,5.7,57,7.9,85.9,7.3
		c28.8-0.7,57.7-4.4,85.9-10.6c28.2-6.2,55.9-15,82.4-26.3c26.5-11.3,52-25.1,75.2-41.7c3-2.1,5.6-4.1,8.3-6.2
		c2.7-2.1,5.2-4.3,7.8-6.6c5-4.6,9.8-9.5,14.3-14.7c9-10.4,16.8-22,23.6-34.2c6.9-12.2,12.6-25.2,17.7-38.5
		c2.5-6.7,4.8-13.4,6.9-20.3c2.1-6.8,4.1-13.8,5.8-20.7c7.1-27.9,11.7-56.7,14.7-85.6c1.5-14.5,2.5-29.1,3.2-43.7
		c0.7-14.6,1.1-29.3,1.2-43.9c0.2-29.3-0.7-58.7-2.6-88.1c-1.9-29.4-4.4-58.7-7.8-88.1c-3.3-29.3-7.4-58.6-12.1-87.7
		c-4.6-29.2-9.8-58.3-15.6-87.2c-11.7-57.9-25.2-115.5-42.3-171.9c-4.3-14.1-8.7-28.1-13.6-41.8c-1.2-3.4-2.5-6.9-3.8-10.2
		c-1.2-3.2-2.6-6.4-4-9.5c-2.9-6.2-6.3-12.3-10-18c-7.5-11.6-16.6-22.2-26.9-31.6c-10.3-9.5-21.7-17.8-33.9-25.1
		C640.2,53.1,613,42.9,585,36.3c-28.1-6.6-57.1-9.7-86.1-9.5c-14.5,0.1-29,1.1-43.4,2.9c-14.4,1.8-28.7,4.4-42.7,8
		c-28.1,7.2-55.2,18.1-79.4,33.7c-12.1,7.8-23.4,16.8-33.3,27.1c-5,5.1-9.7,10.6-13.9,16.3l-1.6,2.2c-0.6,0.8-1.3,1.7-1.9,2.5
		c-1.3,1.6-2.7,3.2-4.2,4.6c-3,2.9-6.3,5.5-9.7,7.7c-6.9,4.4-14.4,7.4-22,9.5c-7.6,2.1-15.3,3.3-22.9,4c-15.3,1.4-30.5,0.7-45.5-1
		c-30-3.4-59.1-10.5-87.6-19.5c-14.2-4.5-28.3-9.6-42.1-15.3c-6.9-2.8-13.7-5.9-20.4-9.1c-3.3-1.7-6.6-3.4-9.9-5.3
		c-1.6-1-3.2-1.9-4.7-3c-0.8-0.5-1.5-1.1-2.2-1.7C10.6,89.8,9.9,89.1,9.5,88.3z"/>
</g>
</svg>
